%YAML 1.1
%TAG !u! tag:unity3d.com,2011:
--- !u!162 &1
EditorUserSettings:
  m_ObjectHideFlags: 0
  serializedVersion: 4
  m_ConfigSettings:
    RecentlyUsedScenePath-0:
      value: 22424703114646680e0b0227036c6c111b07142f1f2b233e2867083debf42d
      flags: 0
    RecentlyUsedScenePath-1:
      value: 22424703114646643e0d092c1530103c1f10103e3f66333e243d04
      flags: 0
    RecentlyUsedScenePath-2:
      value: 22424703114646643e0d092c15301023171a08262966333e243d04
      flags: 0
    RecentlyUsedScenePath-3:
      value: 22424703114646643e0d092c1530103106072b292926237e38271427fb
      flags: 0
    RecentlyUsedScenePath-4:
      value: 22424703114646643e0d092c1530102413040c6439262f2434
      flags: 0
    RecentlyUsedScenePath-5:
      value: 22424703114646643e0d092c153010253f241b2f222d68252320092a
      flags: 0
    vcSharedLogLevel:
      value: 0d5e400f0650
      flags: 0
  m_VCAutomaticAdd: 1
  m_VCDebugCom: 0
  m_VCDebugCmd: 0
  m_VCDebugOut: 0
  m_SemanticMergeMode: 2
  m_VCShowFailedCheckout: 1
  m_VCOverwriteFailedCheckoutAssets: 1
  m_VCProjectOverlayIcons: 1
  m_VCHierarchyOverlayIcons: 1
  m_VCOtherOverlayIcons: 1
  m_VCAllowAsyncUpdate: 1
